…
Let us plot separately some figures which are not so clear in the picture above and break them down into actual numbers.

``` r
# native country
adult %>%
    group_by(native_country) %>%
    summarise(freq = n()) %>%
    mutate(prop = freq / sum(freq) * 100) %>%
    arrange(desc(prop))
```

    ## # A tibble: 42 x 3
    ##    native_country  freq   prop
    ##    <chr>          <int>  <dbl>
    ##  1 United-States  29170 89.6  
    ##  2 Mexico           643  1.97 
    ##  3 unknown          583  1.79 
    ##  4 Philippines      198  0.608
    ##  5 Germany          137  0.421
    ##  6 Canada           121  0.372
    ##  7 Puerto-Rico      114  0.350
    ##  8 El-Salvador      106  0.326
    ##  9 India            100  0.307
    ## 10 Cuba              95  0.292
    ## # ... with 32 more rows
…
